Building DAG of jobs...
MissingInputException in line 7 of /homes/bberkhout/minor/dataprocessing/snakemake-test/Snakefile:
Missing input files for rule quantify_genes:
fastq/Sample1.R1.fastq.gz
fastq/Sample1.R2.fastq.gz
