Building DAG of jobs...
Using shell: /bin/bash
Provided cores: 4
Rules claiming more threads will be scaled down.
Job counts:
	count	jobs
	1	all
	1	bcftools_call
	3	bwa_map
	1	report
	3	samtools_index
	3	samtools_sort
	12

[Fri Mar  6 11:27:39 2020]
Job 11: executing bwa mem on the following ../WC02/data/genome.fa ../WC02/data/samples/B.fastq ../WC02/data/samples/A.fastq ../WC02/data/samples/C.fastq to generate the following mapped_reads/C.bam


[Fri Mar  6 11:27:39 2020]
Job 10: executing bwa mem on the following ../WC02/data/genome.fa ../WC02/data/samples/B.fastq ../WC02/data/samples/A.fastq ../WC02/data/samples/C.fastq to generate the following mapped_reads/A.bam


[Fri Mar  6 11:27:39 2020]
Job 9: executing bwa mem on the following ../WC02/data/genome.fa ../WC02/data/samples/B.fastq ../WC02/data/samples/A.fastq ../WC02/data/samples/C.fastq to generate the following mapped_reads/B.bam

[Fri Mar  6 11:27:39 2020]
Error in rule bwa_map:
    jobid: 10
    output: mapped_reads/A.bam
    shell:
        bwa mem ../WC02/data/genome.fa ../WC02/data/samples/B.fastq ../WC02/data/samples/A.fastq ../WC02/data/samples/C.fastq | samtools view -Sb - > mapped_reads/A.bam
        (one of the commands exited with non-zero exit code; note that snakemake uses bash strict mode!)

Removing output files of failed job bwa_map since they might be corrupted:
mapped_reads/A.bam
[Fri Mar  6 11:27:39 2020]
Error in rule bwa_map:
    jobid: 11
    output: mapped_reads/C.bam
    shell:
        bwa mem ../WC02/data/genome.fa ../WC02/data/samples/B.fastq ../WC02/data/samples/A.fastq ../WC02/data/samples/C.fastq | samtools view -Sb - > mapped_reads/C.bam
        (one of the commands exited with non-zero exit code; note that snakemake uses bash strict mode!)

Removing output files of failed job bwa_map since they might be corrupted:
mapped_reads/C.bam
[Fri Mar  6 11:27:39 2020]
Error in rule bwa_map:
    jobid: 9
    output: mapped_reads/B.bam
    shell:
        bwa mem ../WC02/data/genome.fa ../WC02/data/samples/B.fastq ../WC02/data/samples/A.fastq ../WC02/data/samples/C.fastq | samtools view -Sb - > mapped_reads/B.bam
        (one of the commands exited with non-zero exit code; note that snakemake uses bash strict mode!)

Removing output files of failed job bwa_map since they might be corrupted:
mapped_reads/B.bam
Shutting down, this might take some time.
Exiting because a job execution failed. Look above for error message
Complete log: /homes/bberkhout/minor/dataprocessing/WC05/.snakemake/log/2020-03-06T112739.646045.snakemake.log
